The Bechdel test and the X-Mansion with tidymodels and TidyTuesday
…
## Parsed with column specification:
## cols(
##   issue = col_double(),
##   location = col_character(),
##   context = col_character(),
##   notes = col_character()
## )

theme_set(theme_light())

The character_visualization dataset counts up each time one of the main 25 character speaks, thinks, is involved in narrative statements, or is depicted total

character_visualization

## # A tibble: 9,800 x 7
##    issue costume character                     speech thought narrative depicted
##    <dbl> <chr>   <chr>                          <dbl>   <dbl>     <dbl>    <dbl>
##  1    97 Costume Editor narration                   0       0         0        0
##  2    97 Costume Omnipresent narration              0       0         0        0
##  3    97 Costume Professor X = Charles Xavier~      0       0         0        0
##  4    97 Costume Wolverine = Logan                  7       0         0       10
##  5    97 Costume Cyclops = Scott Summers           24       3         0       23
##  6    97 Costume Marvel Girl/Phoenix = Jean G~      0       0         0        0
##  7    97 Costume Storm = Ororo Munroe              11       0         0        9
##  8    97 Costume Colossus = Peter (Piotr) Ras~      9       0         0       17
##  9    97 Costume Nightcrawler = Kurt Wagner        10       0         0       17
## 10    97 Costume Banshee = Sean Cassidy             0       0         0        5
## # ... with 9,790 more rows
…
