PRACTICE USING LUBRIDATE - THEATREICALLY
…
london_by_theater <- london_stage %>% 
               filter(TheatreCode != 'none') %>% 
               group_by(TheatreCode) %>% 
               summarise(TotalEvents = n(),
                         MinDate = min(EventDate),
                         MaxDate = max(EventDate),
                         TimeSpan = as.duration(MaxDate - MinDate)) %>% 
               arrange(-TotalEvents)

## `summarise()` ungrouping output (override with `.groups` argument)

london_by_theater

## # A tibble: 233 x 5
##    TheatreCode TotalEvents MinDate    MaxDate    TimeSpan                   
##    <chr>             <int> <date>     <date>     <Duration>                 
##  1 dl                18451 1674-03-26 1800-06-18 3983385600s (~126.23 years)
##  2 cg                12826 1662-05-09 1800-06-16 4358102400s (~138.1 years) 
##  3 hay                5178 1720-12-29 1800-09-16 2515536000s (~79.71 years) 
##  4 king's             4299 1714-10-23 1800-08-02 2706825600s (~85.77 years) 
##  5 lif                4117 1661-06-28 1745-10-07 2659478400s (~84.27 years) 
##  6 gf                 1832 1729-10-31 1772-10-23 1356307200s (~42.98 years) 
##  7 queen's             884 1705-04-09 1714-06-23 290476800s (~9.2 years)    
##  8 marly               403 1750-08-16 1776-08-10 820022400s (~25.98 years)  
##  9 bf                  257 1661-08-22 1767-09-07 3346358400s (~106.04 years)
## 10 dg                  235 1671-06-26 1706-11-28 1117843200s (~35.42 years) 
## # ... with 223 more rows
…
london_by_theater %>% 
               mutate(TimeSpan = as.numeric(TimeSpan, 'year'))

## # A tibble: 233 x 5
##    TheatreCode TotalEvents MinDate    MaxDate    TimeSpan
##    <chr>             <int> <date>     <date>        <dbl>
##  1 dl                18451 1674-03-26 1800-06-18   126.  
##  2 cg                12826 1662-05-09 1800-06-16   138.  
##  3 hay                5178 1720-12-29 1800-09-16    79.7 
##  4 king's             4299 1714-10-23 1800-08-02    85.8 
##  5 lif                4117 1661-06-28 1745-10-07    84.3 
##  6 gf                 1832 1729-10-31 1772-10-23    43.0 
##  7 queen's             884 1705-04-09 1714-06-23     9.20
##  8 marly               403 1750-08-16 1776-08-10    26.0 
##  9 bf                  257 1661-08-22 1767-09-07   106.  
## 10 dg                  235 1671-06-26 1706-11-28    35.4 
## # ... with 223 more rows

A number of these theaters had events for over a century!

If we wanted to see the number of months that each theater had events, we would change the argument.

london_by_theater %>% 
               mutate(TimeSpan = as.numeric(TimeSpan, 'month'))

## # A tibble: 233 x 5
##    TheatreCode TotalEvents MinDate    MaxDate    TimeSpan
##    <chr>             <int> <date>     <date>        <dbl>
##  1 dl                18451 1674-03-26 1800-06-18    1515.
##  2 cg                12826 1662-05-09 1800-06-16    1657.
##  3 hay                5178 1720-12-29 1800-09-16     957.
##  4 king's             4299 1714-10-23 1800-08-02    1029.
##  5 lif                4117 1661-06-28 1745-10-07    1011.
##  6 gf                 1832 1729-10-31 1772-10-23     516.
##  7 queen's             884 1705-04-09 1714-06-23     110.
##  8 marly               403 1750-08-16 1776-08-10     312.
##  9 bf                  257 1661-08-22 1767-09-07    1272.
## 10 dg                  235 1671-06-26 1706-11-28     425.
## # ... with 223 more rows
…
